…
``` r
nir_data$lab_results
#> # A tibble: 1,080 × 26
#>    tube_no barnname    rfid  lact grp   dim_days date       day_of_study
#>      <dbl>    <dbl>   <dbl> <dbl> <chr>    <dbl> <date>            <dbl>
#>  1       1     1126 8.40e14     1 A1         218 2025-06-30            1
#>  2      13     1161 8.40e14     1 A1         129 2025-06-30            1
#>  3      25     1181 8.40e14     1 A1          88 2025-06-30            1
#>  4      37     1083 8.40e14     1 A1         248 2025-06-30            1
#>  5      49     1149 8.40e14     1 A1          83 2025-06-30            1
#>  6      61      616 8.40e14     4 B2         204 2025-06-30            1
#>  7      73      456 8.40e14     5 B2         211 2025-06-30            1
#>  8      85      408 8.40e14     5 B2         249 2025-06-30            1
#>  9      97      746 8.40e14     3 B2          88 2025-06-30            1
#> 10     109      913 8.40e14     2 B2         246 2025-06-30            1
#> # ℹ 1,070 more rows
#> # ℹ 18 more variables: daily_milking <dbl>, study_milking <dbl>,
#> #   milking_end <chr>, avgmilkdur_mins <dbl>, milking_stall <dbl>,
#> #   milk_wt_lbs <dbl>, tube_number <dbl>, date_1 <date>, fat_percent <dbl>,
#> #   protein_percent <dbl>, scc_thous_per_ml <dbl>, lactose_percent <dbl>,
#> #   other_solids_percent <dbl>, mun_mg_per_dl <dbl>,
#> #   solids_not_fat_percent <dbl>, total_solids_percent <dbl>, endtime <dttm>, …
```
…
